G04 #@! TF.GenerationSoftware,KiCad,Pcbnew,(5.1.0)-1*
G04 #@! TF.CreationDate,2019-11-06T12:09:53+05:30*
G04 #@! TF.ProjectId,V1.3,56312e33-2e6b-4696-9361-645f70636258,rev?*
G04 #@! TF.SameCoordinates,PX74eba40PY73035c0*
G04 #@! TF.FileFunction,Drawing*
%FSLAX46Y46*%
G04 Gerber Fmt 4.6, Leading zero omitted, Abs format (unit mm)*
G04 Created by KiCad (PCBNEW (5.1.0)-1) date 2019-11-06 12:09:53*
%MOMM*%
%LPD*%
G04 APERTURE LIST*
%ADD10C,0.200000*%
%ADD11C,0.100000*%
G04 APERTURE END LIST*
D10*
X9099999Y58300000D02*
X7099999Y58300000D01*
X9099999Y58300000D02*
X9099999Y53300000D01*
X9099999Y53300000D02*
X7099999Y53300000D01*
X-7100000Y58300000D02*
X-7100000Y53300000D01*
X-9100000Y53300000D02*
X-7100000Y53300000D01*
X-9100000Y58300000D02*
X-9100000Y53300000D01*
X-18000000Y72000001D02*
X-18000000Y77000001D01*
X-23000000Y77000001D02*
X-18000000Y77000001D01*
X-23000000Y72000001D02*
X-23000000Y77000001D01*
X-23000000Y72000001D02*
X-18000000Y72000001D01*
X-9100000Y58300000D02*
X-7100000Y58300000D01*
X9099999Y20200001D02*
X7099999Y20200001D01*
X9099999Y20200001D02*
X9099999Y15200001D01*
X9099999Y15200001D02*
X7099999Y15200001D01*
X7099999Y20200001D02*
X7099999Y15200001D01*
X7099999Y58300000D02*
X7099999Y53300000D01*
X-7100000Y20200001D02*
X-7100000Y15200001D01*
X-9100000Y15200001D02*
X-7100000Y15200001D01*
X-9100000Y20200001D02*
X-9100000Y15200001D01*
X-9100000Y20200001D02*
X-7100000Y20200001D01*
X-6100000Y38000000D02*
X6099999Y38000000D01*
X0Y38000000D02*
X0Y-16500000D01*
X4400000Y33400001D02*
X6599999Y33400001D01*
X4400000Y33400001D02*
X4400000Y22400001D01*
X4400000Y22400001D02*
X6599999Y22400001D01*
X6599999Y33400001D02*
X6599999Y22400001D01*
X-5100000Y27000000D02*
X-5100000Y19400001D01*
X-5100000Y19400001D02*
X-600000Y19400001D01*
X-600000Y27000000D02*
X-600000Y19400001D01*
X-5100000Y27000000D02*
X-600000Y27000000D01*
X-3900001Y53200001D02*
X-3900001Y37400001D01*
X-3900001Y53200001D02*
X1900000Y53200001D01*
X1900000Y53200001D02*
X1900000Y37400001D01*
X-3900001Y37400001D02*
X1900000Y37400001D01*
X6099999Y32900001D02*
X6099999Y22900001D01*
X4900000Y22900001D02*
X6099999Y22900001D01*
X4900000Y32900001D02*
X4900000Y22900001D01*
X4900000Y32900001D02*
X6099999Y32900001D01*
X-1100000Y26500000D02*
X-1100000Y19900001D01*
X-4600000Y19900001D02*
X-1100000Y19900001D01*
X-4600000Y26500000D02*
X-4600000Y19900001D01*
X-4600000Y26500000D02*
X-1100000Y26500000D01*
X1400000Y52700001D02*
X1400000Y37900001D01*
X-3400001Y37900001D02*
X1400000Y37900001D01*
X-3400001Y52700001D02*
X-3400001Y37900001D01*
X-3400001Y52700001D02*
X1400000Y52700001D01*
X6099999Y17700001D02*
X6099999Y58300000D01*
X-6100000Y58300000D02*
X6099999Y58300000D01*
X-6100000Y17700001D02*
X-6100000Y58300000D01*
X-6100000Y17700001D02*
X6099999Y17700001D01*
X52500000Y38000000D02*
G75*
G03X52500000Y38000000I-52500000J0D01*
G01*
X14000000Y0D02*
G75*
G03X14000000Y0I-14000000J0D01*
G01*
X9000000Y0D02*
G75*
G03X9000000Y0I-9000000J0D01*
G01*
X54500000Y38000000D02*
G75*
G03X54500000Y38000000I-54500000J0D01*
G01*
D11*
X-9450000Y60000000D02*
X-35050000Y60000000D01*
X-35050000Y60000000D02*
X-35050000Y66800000D01*
X-35050000Y66800000D02*
X-9450000Y66800000D01*
X-9450000Y66800000D02*
X-9450000Y60000000D01*
X-9450000Y60000000D02*
X-16250000Y66800000D01*
X-11450000Y60000000D02*
X-18250000Y66800000D01*
X-13450000Y60000000D02*
X-20250000Y66800000D01*
X-15450000Y60000000D02*
X-22250000Y66800000D01*
X-17450000Y60000000D02*
X-24250000Y66800000D01*
X-19450000Y60000000D02*
X-26250000Y66800000D01*
X-21450000Y60000000D02*
X-28250000Y66800000D01*
X-23450000Y60000000D02*
X-30250000Y66800000D01*
X-25450000Y60000000D02*
X-32250000Y66800000D01*
X-27450000Y60000000D02*
X-34250000Y66800000D01*
X-29450000Y60000000D02*
X-35050000Y65600000D01*
X-31450000Y60000000D02*
X-35050000Y63600000D01*
X-33450000Y60000000D02*
X-35050000Y61600000D01*
X-9450000Y62000000D02*
X-14250000Y66800000D01*
X-9500000Y64050000D02*
X-12250000Y66800000D01*
X-9450000Y66000000D02*
X-10250000Y66800000D01*
X50300000Y48300000D02*
G75*
G03X50300000Y48300000I0J0D01*
G01*
X50300000Y48300000D02*
G75*
G03X50300000Y48300000I0J0D01*
G01*
X50300000Y48300000D02*
G75*
G03X50300000Y48300000I0J0D01*
G01*
X50300000Y48300000D02*
G75*
G03X50300000Y48300000I0J0D01*
G01*
X50300000Y48300000D02*
G75*
G03X50300000Y48300000I0J0D01*
G01*
X50300000Y48300000D02*
G75*
G03X50300000Y48300000I0J0D01*
G01*
X50300000Y48300000D02*
X50300000Y48300000D01*
X50300000Y48300000D02*
X50300000Y48300000D01*
X50300000Y48300000D02*
X50300000Y48300000D01*
X50300000Y48300000D02*
X50300000Y48300000D01*
M02*
